{"description":"Documents matching 'artificial intelligence'","count":1425,"total_pages":50,"next_page_url":"https://www.federalregister.gov/api/v1/documents?conditions%5Bterm%5D=artificial+intelligence&format=json&order=newest&page=2&per_page=5","results":[{"title":"Extension of Compliance Dates for Nondiscrimination on the Basis of Disability; Accessibility of Web Content and Mobile Applications of Recipients of Departmental Financial Assistance","type":"Rule","abstract":"By this interim final rule (\"IFR\"), the Department of Health and Human Services (\"Department\") is revising the Department's regulations implementing section 504 of the Rehabilitation Act (\"section 504\") to extend the compliance dates for the requirements for web content and mobile application (\"app\") accessibility that were adopted on May 9, 2024. The compliance date for recipients with fifteen (15) or more employees is extended from May 11, 2026, to May 11, 2027. The compliance date for recipients with fewer than fifteen (15) employees is extended from May 10, 2027, to May 10, 2028.","document_number":"2026-09266","html_url":"https://www.federalregister.gov/documents/2026/05/11/2026-09266/extension-of-compliance-dates-for-nondiscrimination-on-the-basis-of-disability-accessibility-of-web","pdf_url":"https://www.govinfo.gov/content/pkg/FR-2026-05-11/pdf/2026-09266.pdf","public_inspection_pdf_url":"https://public-inspection.federalregister.gov/2026-09266.pdf?1778184911","publication_date":"2026-05-11","agencies":[{"raw_name":"DEPARTMENT OF HEALTH AND HUMAN SERVICES","name":"Health and Human Services Department","id":221,"url":"https://www.federalregister.gov/agencies/health-and-human-services-department","json_url":"https://www.federalregister.gov/api/v1/agencies/221","parent_id":null,"slug":"health-and-human-services-department"}],"excerpts":"risk recipients face from private lawsuits is heightened for reasons that were not specifically addressed in the 2024 final rule, namely that some recipients may be generating web content that would be covered by the 2024 final rule using generative AI \n \n 53 \n \n \n (<span class=\"match\">artificial</span> <span class=\"match\">intelligence</span>) that is potentially inaccessible.\n 54 \n \n \n \n \n 51 \n  \n See Barnes \n v. \n Gorman, \n 536 U.S. 181, 185 (2002) (stating that section 504 is enforceable through a private right of action).\n \n \n \n \n 52 \n  \n See \n 29 U.S.C. 794a(b) (“In any action or proceeding to enforce"},{"title":"Comprehensive Centers Program","type":"Notice","abstract":"The Department of Education (Department) announces final priorities, requirements, and definitions under the Comprehensive Centers (CC) Program, Assistance Listing Numbers (ALNs) 84.283B and 84.283D. We may use one or more of these priorities, requirements, and definitions for competitions in fiscal year (FY) 2026 and later years. These final priorities, requirements, and definitions are intended to redesign the CC program to better meet its statutory purpose to provide high-quality capacity-building services to State, regional, and local educational agencies and schools that improve educational opportunities and outcomes, close achievement gaps, and improve the quality of instruction for all students.","document_number":"2026-09203","html_url":"https://www.federalregister.gov/documents/2026/05/08/2026-09203/comprehensive-centers-program","pdf_url":"https://www.govinfo.gov/content/pkg/FR-2026-05-08/pdf/2026-09203.pdf","public_inspection_pdf_url":"https://public-inspection.federalregister.gov/2026-09203.pdf?1778157921","publication_date":"2026-05-08","agencies":[{"raw_name":"DEPARTMENT OF EDUCATION","name":"Education Department","id":126,"url":"https://www.federalregister.gov/agencies/education-department","json_url":"https://www.federalregister.gov/api/v1/agencies/126","parent_id":null,"slug":"education-department"}],"excerpts":"Several commenters provided suggestions for potential \n \n specific focus areas of Emerging Needs Centers aligned to the current Secretary's Supplemental Priorities, including literacy acceleration and achievement, numeracy acceleration and achievement, advancing <span class=\"match\">artificial</span> <span class=\"match\">intelligence</span> in education, civics education, school choice, and career pathways and workforce readiness or career and technical education. Another commenter cautioned that focus areas for Emerging Needs Centers should be grounded in clear areas of need, such as school improvement"},{"title":"Renewal of Department of Defense Federal Advisory Committees-U.S. Army Science Board","type":"Notice","abstract":"The Department of War (DoW) is publishing this notice to announce it is renewing the U.S. Army Science Board (ASB) as a discretionary Federal advisory committee.","document_number":"2026-09112","html_url":"https://www.federalregister.gov/documents/2026/05/08/2026-09112/renewal-of-department-of-defense-federal-advisory-committees-us-army-science-board","pdf_url":"https://www.govinfo.gov/content/pkg/FR-2026-05-08/pdf/2026-09112.pdf","public_inspection_pdf_url":"https://public-inspection.federalregister.gov/2026-09112.pdf?1778157908","publication_date":"2026-05-08","agencies":[{"raw_name":"DEPARTMENT OF DEFENSE","name":"Defense Department","id":103,"url":"https://www.federalregister.gov/agencies/defense-department","json_url":"https://www.federalregister.gov/api/v1/agencies/103","parent_id":null,"slug":"defense-department"},{"raw_name":"Office of the Secretary"}],"excerpts":"the U.S., and reestablishing deterrence as envisioned by: Executive Order (E.O.) 14167, “Clarifying the Military's Role in Protecting the Territorial Integrity of the United States,” dated January 20, 2025; E.O. 14179, “Removing Barriers to American Leadership in <span class=\"match\">Artificial</span> <span class=\"match\">Intelligence</span>,” dated January 23, 2025; E.O. 14186, “The Iron Dome for America,” dated January 27, 2025; E.O. 14307, “Unleashing American Drone Dominance,” dated June 6, 2025; SecWar Address, Marine Corps Base Quantico, Virginia, September 30, 2025; and SecWar Memorandum, “The"},{"title":"Semiannual Reporting","type":"Proposed Rule","abstract":"The Securities and Exchange Commission (\"Commission\") is proposing amendments to allow companies to file semiannual reports on new Form 10-S in lieu of quarterly reports on Form 10-Q to meet their interim reporting obligations under the Securities Exchange Act of 1934 (\"Exchange Act\"). The Commission is also proposing changes to the financial statement requirements of Regulation S-X to facilitate semiannual reporting and to simplify rules regarding the age of financial statements.","document_number":"2026-09095","html_url":"https://www.federalregister.gov/documents/2026/05/07/2026-09095/semiannual-reporting","pdf_url":"https://www.govinfo.gov/content/pkg/FR-2026-05-07/pdf/2026-09095.pdf","public_inspection_pdf_url":"https://public-inspection.federalregister.gov/2026-09095.pdf?1778071532","publication_date":"2026-05-07","agencies":[{"raw_name":"SECURITIES AND EXCHANGE COMMISSION","name":"Securities and Exchange Commission","id":466,"url":"https://www.federalregister.gov/agencies/securities-and-exchange-commission","json_url":"https://www.federalregister.gov/api/v1/agencies/466","parent_id":null,"slug":"securities-and-exchange-commission"}],"excerpts":"reduced information asymmetry,\n 297 \n \n greater stock price reflectiveness of public disclosures,\n 298 \n \n enhanced market competition,\n 299 \n \n increased liquidity,\n 300 \n \n decreased cost of capital,\n 301 \n \n more accurate financial analysis,\n 302 \n \n enhanced <span class=\"match\">artificial</span> <span class=\"match\">intelligence</span> capabilities,\n 303 \n \n and others.\n 304 \n \n To the extent the magnitude of these effects varies with the frequency of XBRL data availability, these benefits may be reduced as a whole given the lack of quarterly XBRL-tagged financial data from semiannual and hybrid"},{"title":"Renewal of Department of War Federal Advisory Committee-U.S. Strategic Command Strategic Advisory Group","type":"Notice","abstract":"The Department of War (DoW) is publishing this notice to announce that it is renewing the U.S. Strategic Command Strategic Advisory Group (USSTRATCOM SAG) as a discretionary Federal advisory committee.","document_number":"2026-08784","html_url":"https://www.federalregister.gov/documents/2026/05/06/2026-08784/renewal-of-department-of-war-federal-advisory-committee-us-strategic-command-strategic-advisory","pdf_url":"https://www.govinfo.gov/content/pkg/FR-2026-05-06/pdf/2026-08784.pdf","public_inspection_pdf_url":"https://public-inspection.federalregister.gov/2026-08784.pdf?1777985111","publication_date":"2026-05-06","agencies":[{"raw_name":"DEPARTMENT OF DEFENSE","name":"Defense Department","id":103,"url":"https://www.federalregister.gov/agencies/defense-department","json_url":"https://www.federalregister.gov/api/v1/agencies/103","parent_id":null,"slug":"defense-department"},{"raw_name":"Office of the Secretary"}],"excerpts":"membership balance plan, the USSTRATCOM SAG is composed of members who are eminent authorities in the fields of strategic policy formulation; nuclear weapon design; national command, control, and communications; electromagnetic spectrum operations, <span class=\"match\">intelligence</span>, disruptive technologies (<span class=\"match\">Artificial</span> <span class=\"match\">Intelligence</span>/Machine Learning, Quantum Computing/Sensing, Cyber, Space), and information operations; or other important aspects of the Nation's strategic forces of interest to the DoW.\n \n In selecting members, the DoW seeks to capitalize on recognized talented"}]}