{
  "total": 1847,
  "offset": 0,
  "next": 10,
  "data": [
    {
      "paperId": "a0b1c2d3e4f5a0b1c2d3e4f5a0b1c2d3e4f5a0b1",
      "externalIds": {"DOI": "10.1145/3459637.3482045", "ArXiv": "2109.01652"},
      "title": "Knowledge Graph-Augmented Language Model Agents for Reasoning",
      "abstract": "We propose a framework that augments large language model agents with structured knowledge graphs to improve multi-hop reasoning and factual grounding.",
      "authors": [{"authorId": "11111111", "name": "Alice Chen"}, {"authorId": "22222222", "name": "Bob Martinez"}],
      "venue": "Proceedings of CIKM 2021",
      "year": 2021,
      "publicationDate": "2021-11-01",
      "citationCount": 342,
      "referenceCount": 48,
      "influentialCitationCount": 52,
      "openAccessPdf": {"url": "https://arxiv.org/pdf/2109.01652", "status": "GREEN"},
      "url": "https://www.semanticscholar.org/paper/a0b1c2d3e4f5a0b1c2d3e4f5a0b1c2d3e4f5a0b1"
    },
    {
      "paperId": "b1c2d3e4f5a0b1c2d3e4f5a0b1c2d3e4f5a0b1c2",
      "externalIds": {"DOI": "10.18653/v1/2022.acl-long.123", "ArXiv": "2203.07540"},
      "title": "Graph-Guided Dialogue Agents with Semantic Knowledge Integration",
      "abstract": "This paper introduces a dialogue agent that leverages semantic knowledge graphs to maintain conversational context and provide coherent responses.",
      "authors": [{"authorId": "33333333", "name": "Carol Liu"}, {"authorId": "44444444", "name": "David Kim"}],
      "venue": "ACL 2022",
      "year": 2022,
      "publicationDate": "2022-05-22",
      "citationCount": 189,
      "referenceCount": 56,
      "influentialCitationCount": 31,
      "openAccessPdf": {"url": "https://arxiv.org/pdf/2203.07540", "status": "GREEN"},
      "url": "https://www.semanticscholar.org/paper/b1c2d3e4f5a0b1c2d3e4f5a0b1c2d3e4f5a0b1c2"
    },
    {
      "paperId": "c2d3e4f5a0b1c2d3e4f5a0b1c2d3e4f5a0b1c2d3",
      "externalIds": {"DOI": "10.1016/j.knosys.2022.108521"},
      "title": "Autonomous Agents for Knowledge Graph Construction and Completion",
      "abstract": "We propose an autonomous agent pipeline that iteratively constructs and completes knowledge graphs from unstructured text corpora.",
      "authors": [{"authorId": "55555555", "name": "Eve Zhang"}, {"authorId": "66666666", "name": "Frank Osei"}],
      "venue": "Knowledge-Based Systems",
      "year": 2022,
      "publicationDate": "2022-08-15",
      "citationCount": 97,
      "referenceCount": 72,
      "influentialCitationCount": 14,
      "openAccessPdf": null,
      "url": "https://www.semanticscholar.org/paper/c2d3e4f5a0b1c2d3e4f5a0b1c2d3e4f5a0b1c2d3"
    },
    {
      "paperId": "d3e4f5a0b1c2d3e4f5a0b1c2d3e4f5a0b1c2d3e4",
      "externalIds": {"ArXiv": "2301.04871"},
      "title": "ReACT: Synergizing Reasoning and Acting in Language Agents over Knowledge Graphs",
      "abstract": "ReACT combines chain-of-thought reasoning with knowledge graph traversal for grounded language agent decision-making.",
      "authors": [{"authorId": "77777777", "name": "Grace Park"}],
      "venue": "ICLR 2023",
      "year": 2023,
      "publicationDate": "2023-01-12",
      "citationCount": 1204,
      "referenceCount": 41,
      "influentialCitationCount": 213,
      "openAccessPdf": {"url": "https://arxiv.org/pdf/2301.04871", "status": "GREEN"},
      "url": "https://www.semanticscholar.org/paper/d3e4f5a0b1c2d3e4f5a0b1c2d3e4f5a0b1c2d3e4"
    },
    {
      "paperId": "e4f5a0b1c2d3e4f5a0b1c2d3e4f5a0b1c2d3e4f5",
      "externalIds": {"DOI": "10.1145/3543507.3583396", "ArXiv": "2210.09338"},
      "title": "Multi-Hop Question Answering via Knowledge Graph Agent Traversal",
      "abstract": "A reinforcement learning agent trained to traverse knowledge graph paths for multi-hop question answering tasks.",
      "authors": [{"authorId": "88888888", "name": "Henry Wu"}, {"authorId": "99999999", "name": "Irene Nguyen"}],
      "venue": "WWW 2023",
      "year": 2023,
      "publicationDate": "2023-04-30",
      "citationCount": 256,
      "referenceCount": 63,
      "influentialCitationCount": 44,
      "openAccessPdf": {"url": "https://arxiv.org/pdf/2210.09338", "status": "GREEN"},
      "url": "https://www.semanticscholar.org/paper/e4f5a0b1c2d3e4f5a0b1c2d3e4f5a0b1c2d3e4f5"
    },
    {
      "paperId": "f5a0b1c2d3e4f5a0b1c2d3e4f5a0b1c2d3e4f5a0",
      "externalIds": {"DOI": "10.1162/tacl_a_00569", "ArXiv": "2209.11895"},
      "title": "LLM-Based Agents for Dynamic Knowledge Graph Population",
      "abstract": "Large language model agents iteratively populate and refine knowledge graphs through structured information extraction pipelines.",
      "authors": [{"authorId": "10101010", "name": "Julia Petrov"}, {"authorId": "20202020", "name": "Karl Hassan"}],
      "venue": "Transactions of ACL",
      "year": 2023,
      "publicationDate": "2023-03-07",
      "citationCount": 178,
      "referenceCount": 51,
      "influentialCitationCount": 29,
      "openAccessPdf": {"url": "https://arxiv.org/pdf/2209.11895", "status": "GREEN"},
      "url": "https://www.semanticscholar.org/paper/f5a0b1c2d3e4f5a0b1c2d3e4f5a0b1c2d3e4f5a0"
    },
    {
      "paperId": "a1b2c3d4e5f6a1b2c3d4e5f6a1b2c3d4e5f6a1b2",
      "externalIds": {"DOI": "10.1007/s10994-022-06194-3"},
      "title": "Ontology-Guided Agent Exploration of Scientific Knowledge Graphs",
      "abstract": "We study how ontological constraints guide autonomous agents in exploring and extending scientific knowledge graphs.",
      "authors": [{"authorId": "30303030", "name": "Laura Schmidt"}],
      "venue": "Machine Learning",
      "year": 2022,
      "publicationDate": "2022-11-20",
      "citationCount": 43,
      "referenceCount": 38,
      "influentialCitationCount": 7,
      "openAccessPdf": null,
      "url": "https://www.semanticscholar.org/paper/a1b2c3d4e5f6a1b2c3d4e5f6a1b2c3d4e5f6a1b2"
    },
    {
      "paperId": "b2c3d4e5f6a1b2c3d4e5f6a1b2c3d4e5f6a1b2c3",
      "externalIds": {"ArXiv": "2305.10601"},
      "title": "Agents of Change: Knowledge Graph Evolution via Autonomous Curation",
      "abstract": "Autonomous curation agents maintain knowledge graph freshness by detecting outdated facts and triggering targeted re-extraction.",
      "authors": [{"authorId": "40404040", "name": "Marco Diaz"}, {"authorId": "50505050", "name": "Nina Johansson"}],
      "venue": "EMNLP 2023",
      "year": 2023,
      "publicationDate": "2023-12-06",
      "citationCount": 88,
      "referenceCount": 44,
      "influentialCitationCount": 16,
      "openAccessPdf": {"url": "https://arxiv.org/pdf/2305.10601", "status": "GREEN"},
      "url": "https://www.semanticscholar.org/paper/b2c3d4e5f6a1b2c3d4e5f6a1b2c3d4e5f6a1b2c3"
    },
    {
      "paperId": "c3d4e5f6a1b2c3d4e5f6a1b2c3d4e5f6a1b2c3d4",
      "externalIds": {"DOI": "10.18653/v1/2023.findings-acl.87", "ArXiv": "2212.09561"},
      "title": "Structured Memory Agents for Knowledge Graph Question Answering",
      "abstract": "Memory-augmented agents maintain structured summaries of knowledge graph subgraphs, enabling efficient retrieval during question answering.",
      "authors": [{"authorId": "60606060", "name": "Omar Ali"}, {"authorId": "70707070", "name": "Patricia Vance"}],
      "venue": "Findings of ACL 2023",
      "year": 2023,
      "publicationDate": "2023-07-09",
      "citationCount": 134,
      "referenceCount": 55,
      "influentialCitationCount": 22,
      "openAccessPdf": {"url": "https://arxiv.org/pdf/2212.09561", "status": "GREEN"},
      "url": "https://www.semanticscholar.org/paper/c3d4e5f6a1b2c3d4e5f6a1b2c3d4e5f6a1b2c3d4"
    },
    {
      "paperId": "d4e5f6a1b2c3d4e5f6a1b2c3d4e5f6a1b2c3d4e5",
      "externalIds": {"ArXiv": "2308.09951"},
      "title": "GraphAgent: Interacting with Knowledge Graphs via Natural Language Planning",
      "abstract": "GraphAgent translates natural language instructions into structured plans over knowledge graphs, enabling non-expert users to query and update graph databases.",
      "authors": [{"authorId": "80808080", "name": "Quinn Taylor"}, {"authorId": "90909090", "name": "Rosa Mendez"}],
      "venue": "arXiv preprint",
      "year": 2023,
      "publicationDate": "2023-08-19",
      "citationCount": 67,
      "referenceCount": 33,
      "influentialCitationCount": 11,
      "openAccessPdf": {"url": "https://arxiv.org/pdf/2308.09951", "status": "GREEN"},
      "url": "https://www.semanticscholar.org/paper/d4e5f6a1b2c3d4e5f6a1b2c3d4e5f6a1b2c3d4e5"
    }
  ]
}
